<?xml version="1.0" encoding="UTF-8" standalone="no"?>
<svg
   xmlns:dc="http://purl.org/dc/elements/1.1/"
   xmlns:cc="http://creativecommons.org/ns#"
   xmlns:rdf="http://www.w3.org/1999/02/22-rdf-syntax-ns#"
   xmlns:svg="http://www.w3.org/2000/svg"
   xmlns="http://www.w3.org/2000/svg"
   viewBox="0 0 266.66666 266.66666"
   height="266.66666"
   width="266.66666"
   xml:space="preserve"
   id="svg2"
   version="1.1"><metadata
     id="metadata8"><rdf:RDF><cc:Work
         rdf:about=""><dc:format>image/svg+xml</dc:format><dc:type
           rdf:resource="http://purl.org/dc/dcmitype/StillImage" /><dc:title></dc:title></cc:Work></rdf:RDF></metadata><defs
     id="defs6"><clipPath
       id="clipPath18"
       clipPathUnits="userSpaceOnUse"><path
         id="path16"
         d="M 0,200 H 200 V 0 H 0 Z" /></clipPath></defs><g
     transform="matrix(1.3333333,0,0,-1.3333333,0,266.66667)"
     id="g10"><g
       style="stroke:#000000;stroke-opacity:1"
       id="g12"><g
         style="stroke:#000000;stroke-opacity:1"
         clip-path="url(#clipPath18)"
         id="g14"><g
           style="stroke:#000000;stroke-opacity:1"
           transform="translate(7.875,127.0938)"
           id="g20"><path
             id="path22"
             style="fill:none;stroke:#000000;stroke-width:8;stroke-linecap:round;stroke-linejoin:miter;stroke-miterlimit:10;stroke-dasharray:none;stroke-opacity:1"
             d="m 0,0 c -2.523,-8.59 -3.875,-17.684 -3.875,-27.094 0,-10.613 1.723,-20.824 4.902,-30.371" /></g><g
           style="stroke:#000000;stroke-opacity:1"
           transform="translate(98.9219,196)"
           id="g24"><path
             id="path26"
             style="fill:none;stroke:#000000;stroke-width:8;stroke-linecap:round;stroke-linejoin:miter;stroke-miterlimit:10;stroke-dasharray:none;stroke-opacity:1"
             d="M 0,0 C -37.504,-0.414 -69.852,-22.344 -85.281,-54.02" /></g><g
           style="stroke:#000000;stroke-opacity:1"
           transform="translate(196,102.7422)"
           id="g28"><path
             id="path30"
             style="fill:none;stroke:#000000;stroke-width:8;stroke-linecap:round;stroke-linejoin:miter;stroke-miterlimit:10;stroke-dasharray:none;stroke-opacity:1"
             d="M 0,0 C -1.309,46.715 -36.047,85.098 -81.121,92.113" /></g><g
           style="stroke:#000000;stroke-opacity:1"
           transform="translate(94.3359,18.0117)"
           id="g32"><path
             id="path34"
             style="fill:none;stroke:#000000;stroke-width:8;stroke-linecap:round;stroke-linejoin:miter;stroke-miterlimit:10;stroke-dasharray:none;stroke-opacity:1"
             d="M 0,0 C -1.91,-5.297 -3.844,-9.813 -5.492,-13.352" /></g><g
           style="stroke:#000000;stroke-opacity:1"
           transform="translate(100,100)"
           id="g36"><path
             id="path38"
             style="fill:none;stroke:#000000;stroke-width:8;stroke-linecap:round;stroke-linejoin:miter;stroke-miterlimit:10;stroke-dasharray:none;stroke-opacity:1"
             d="M 0,0 C 0,0 6.266,-25.34 1.602,-54.172 0.898,-58.52 0.016,-62.688 -0.977,-66.633" /></g><g
           style="stroke:#000000;stroke-opacity:1"
           transform="translate(118.3555,51.2891)"
           id="g40"><path
             id="path42"
             style="fill:none;stroke:#000000;stroke-width:8;stroke-linecap:round;stroke-linejoin:miter;stroke-miterlimit:10;stroke-dasharray:none;stroke-opacity:1"
             d="M 0,0 C -0.207,-1.816 -0.457,-3.641 -0.754,-5.461 -3.66,-23.426 -8.77,-38.594 -12.207,-47.289" /></g><g
           style="stroke:#000000;stroke-opacity:1"
           transform="translate(72.3398,8.0664)"
           id="g44"><path
             id="path46"
             style="fill:none;stroke:#000000;stroke-width:8;stroke-linecap:round;stroke-linejoin:miter;stroke-miterlimit:10;stroke-dasharray:none;stroke-opacity:1"
             d="m 0,0 c 4.516,8.879 10.051,22.117 12.75,37.672 3.984,22.988 0.531,43.98 -0.84,51.433 -0.164,0.918 -0.25,1.864 -0.25,2.829 0,8.836 7.164,16 16,16 7.586,0 13.938,-5.278 15.582,-12.364 0,0 3.731,-16.179 3.672,-36.386" /></g><g
           style="stroke:#000000;stroke-opacity:1"
           transform="translate(182.832,71.25)"
           id="g48"><path
             id="path50"
             style="fill:none;stroke:#000000;stroke-width:8;stroke-linecap:round;stroke-linejoin:miter;stroke-miterlimit:10;stroke-dasharray:none;stroke-opacity:1"
             d="M 0,0 C 0.117,-6.371 0.035,-13.25 -0.363,-20.437" /></g><g
           style="stroke:#000000;stroke-opacity:1"
           transform="translate(68.6172,173.6133)"
           id="g52"><path
             id="path54"
             style="fill:none;stroke:#000000;stroke-width:8;stroke-linecap:round;stroke-linejoin:miter;stroke-miterlimit:10;stroke-dasharray:none;stroke-opacity:1"
             d="m 0,0 c 9.637,4.109 20.246,6.387 31.383,6.387 40.39,0 73.902,-30.11 79.336,-69 0,0 1.726,-9.285 2.769,-23.739" /></g><g
           style="stroke:#000000;stroke-opacity:1"
           transform="translate(19.7031,47.3711)"
           id="g56"><path
             id="path58"
             style="fill:none;stroke:#000000;stroke-width:8;stroke-linecap:round;stroke-linejoin:miter;stroke-miterlimit:10;stroke-dasharray:none;stroke-opacity:1"
             d="m 0,0 c 0.957,2.441 1.789,5.035 2.422,7.754 2.308,9.926 0.375,23.941 -1.02,31.543 -0.726,4.336 -1.105,8.789 -1.105,13.332 0,27.367 13.742,51.523 34.699,65.949" /></g><g
           style="stroke:#000000;stroke-opacity:1"
           transform="translate(115.9219,162.0039)"
           id="g60"><path
             id="path62"
             style="fill:none;stroke:#000000;stroke-width:8;stroke-linecap:round;stroke-linejoin:miter;stroke-miterlimit:10;stroke-dasharray:none;stroke-opacity:1"
             d="m 0,0 c -5.09,1.305 -10.426,1.996 -15.922,1.996 -35.348,0 -64,-28.652 -64,-64 0,-3.316 0.254,-6.574 0.742,-9.758 1.524,-8.355 3.5,-22.551 0.86,-36.914 -1.391,-7.57 -3.914,-14.34 -6.692,-20.031" /></g><g
           style="stroke:#000000;stroke-opacity:1"
           transform="translate(163.8086,28.3125)"
           id="g64"><path
             id="path66"
             style="fill:none;stroke:#000000;stroke-width:8;stroke-linecap:round;stroke-linejoin:miter;stroke-miterlimit:10;stroke-dasharray:none;stroke-opacity:1"
             d="M 0,0 C 0.57,3.324 1.086,6.758 1.531,10.281 6.195,47.223 -0.531,81.328 -0.531,81.328 -3.566,101.41 -15.93,118.434 -33.07,127.836" /></g><g
           style="stroke:#000000;stroke-opacity:1"
           transform="translate(145.5195,115.2656)"
           id="g68"><path
             id="path70"
             style="fill:none;stroke:#000000;stroke-width:8;stroke-linecap:round;stroke-linejoin:miter;stroke-miterlimit:10;stroke-dasharray:none;stroke-opacity:1"
             d="M 0,0 C 0.609,-1.816 1.113,-3.684 1.504,-5.594 3.371,-15.363 7.371,-39.582 4.746,-66.43 3.488,-79.316 1.117,-90.957 -1.379,-100.52" /></g><g
           style="stroke:#000000;stroke-opacity:1"
           transform="translate(54.332,57.9805)"
           id="g72"><path
             id="path74"
             style="fill:none;stroke:#000000;stroke-width:8;stroke-linecap:round;stroke-linejoin:miter;stroke-miterlimit:10;stroke-dasharray:none;stroke-opacity:1"
             d="m 0,0 c 1.977,18.266 -1.414,32.637 -1.414,32.637 -0.602,3.035 -0.918,6.172 -0.918,9.383 0,26.507 21.492,48 48,48 15.402,0 29.113,-7.254 37.895,-18.536" /></g><g
           style="stroke:#000000;stroke-opacity:1"
           transform="translate(43.4063,22.375)"
           id="g76"><path
             id="path78"
             style="fill:none;stroke:#000000;stroke-width:8;stroke-linecap:round;stroke-linejoin:miter;stroke-miterlimit:10;stroke-dasharray:none;stroke-opacity:1"
             d="M 0,0 C 2.887,5.605 5.781,12.34 7.898,19.863" /></g><g
           style="stroke:#000000;stroke-opacity:1"
           transform="translate(88.9883,130.0547)"
           id="g80"><path
             id="path82"
             style="fill:none;stroke:#000000;stroke-width:8;stroke-linecap:round;stroke-linejoin:miter;stroke-miterlimit:10;stroke-dasharray:none;stroke-opacity:1"
             d="m 0,0 c 3.434,1.258 7.141,1.945 11.012,1.945 15.445,0 28.34,-10.851 31.343,-25.41 1.708,-8.191 5.79,-31.738 2.883,-58.051 -1.851,-16.703 -5.828,-31.164 -9.277,-41.316" /></g><g
           style="stroke:#000000;stroke-opacity:1"
           transform="translate(57.4414,13.9023)"
           id="g84"><path
             id="path86"
             style="fill:none;stroke:#000000;stroke-width:8;stroke-linecap:round;stroke-linejoin:miter;stroke-miterlimit:10;stroke-dasharray:none;stroke-opacity:1"
             d="m 0,0 c 4.758,9.078 9.684,20.977 11.758,34.098 3.129,19.793 0.777,37.511 -0.699,46.25 -0.36,1.914 -0.5,3.73 -0.5,5.75 0,8.078 2.996,15.457 7.933,21.09" /></g></g></g></g></svg>